<svg width="21" height="20" viewBox="0 0 21 20" fill="none" xmlns="http://www.w3.org/2000/svg">
<path d="M19.9604 18.2168L15.1197 13.2662C16.3643 11.8113 17.0463 9.98069 17.0463 8.07499C17.0463 3.62251 13.3624 0 8.83442 0C4.30647 0 0.622559 3.62251 0.622559 8.07499C0.622559 12.5275 4.30647 16.15 8.83442 16.15C10.5343 16.15 12.1541 15.6458 13.5391 14.6888L18.4166 19.677C18.6205 19.8852 18.8947 20 19.1885 20C19.4666 20 19.7305 19.8957 19.9308 19.7061C20.3564 19.3034 20.3699 18.6357 19.9604 18.2168ZM8.83442 2.10652C12.1813 2.10652 14.9041 4.78391 14.9041 8.07499C14.9041 11.3661 12.1813 14.0435 8.83442 14.0435C5.48755 14.0435 2.76478 11.3661 2.76478 8.07499C2.76478 4.78391 5.48755 2.10652 8.83442 2.10652Z" fill="#333333"/>
</svg>
